{
    "code": "ponymount",
    "class": "EntityPonyMount",
    "variantgroups": [],
    "hitboxSize": { "x": 0.1, "y": 0.1, "z": 0.1 },
    "client": {
		"size": 1,
		"renderer": "Shape",
		"shape": null,
		"texturesByType": {},
        "behaviors": [
            
        ]
    },
    "server": {
        "behaviors": [
        ]
    }
}